mappings — mappings • rmap
…
    Value

    A list of assumptions

    Details

    List of Mappings

    Examples

library(rmap)
a<-mappings()
a # will give full list of mappings
#> $mapParamQuery
#> # A tibble: 88 × 4
#>    group  param                            query     mapPalette
#>    <chr>  <chr>                            <list>    <chr>     
#>  1 energy energyPrimaryByFuelEJ            <chr [1]> pal_hot   
#>  2 energy energyPrimaryRefLiqProdEJ        <chr [1]> pal_hot   
#>  3 energy energyFinalConsumBySecEJ         <chr [1]> pal_hot   
#>  4 energy energyFinalByFuelBySectorEJ      <chr [1]> pal_hot   
#>  5 energy energyFinalSubsecByFuelTranspEJ  <chr [1]> pal_hot   
#>  6 energy energyFinalSubsecByFuelBuildEJ   <chr [1]> pal_hot   
#>  7 energy energyFinalSubsecByFuelIndusEJ   <chr [1]> pal_hot   
#>  8 energy energyFinalSubsecBySectorBuildEJ <chr [1]> pal_hot   
#>  9 energy energyFinalConsumByIntlShpAvEJ   <chr [1]> pal_hot   
#> 10 energy energyPrimaryByFuelMTOE          <chr [1]> pal_hot   
#> # … with 78 more rows
#> 
#> $US52
#>  [1] "AK" "AL" "AR" "AZ" "CA" "CO" "CT" "DC" "DE" "FL" "GA" "HI" "IA" "ID" "IL"
#> [16] "IN" "KS" "KY" "LA" "MA" "MD" "ME" "MI" "MN" "MO" "MS" "MT" "NC" "ND" "NE"
#> [31] "NH" "NJ" "NM" "NV" "NY" "OH" "OK" "OR" "PA" "PR" "RI" "SC" "SD" "TN" "TX"
#> [46] "UT" "VA" "VT" "WA" "WI" "WV" "WY"
#> 
#> $US49
#>  [1] "AL" "AR" "AZ" "CA" "CO" "CT" "DC" "DE" "FL" "GA" "IA" "ID" "IL" "IN" "KS"
#> [16] "KY" "LA" "MA" "MD" "ME" "MI" "MN" "MO" "MS" "MT" "NC" "ND" "NE" "NH" "NJ"
#> [31] "NM" "NV" "NY" "OH" "OK" "OR" "PA" "RI" "SC" "SD" "TN" "TX" "UT" "VA" "VT"
#> [46] "WA" "WI" "WV" "WY"
#> 
#> $countryToGCAMReg32
#> # A tibble: 288 × 4
#>    region_code ctry_code region         ctry_name      
#>          <dbl>     <dbl> <chr>          <chr>          
#>  1          29       238 Southeast Asia Fiji           
#>  2          23       103 Russia         Russia         
#>  3          13        17 EU-15          Wallis & Futuna
#>  4           6       223 Australia_NZ   New Zealand    
#>  5           1       150 USA            United States  
#>  6          29        40 Southeast Asia Midway Is.     
#>  7          29        16 Southeast Asia Tonga          
#>  8          29        38 Southeast Asia Kiribati       
#>  9          29        14 Southeast Asia Samoa          
#> 10          29        15 Southeast Asia Tokelau        
#> # … with 278 more rows
#> 
#> $mappingGCAMBasins
#> # A tibble: 235 × 2
#>    subRegionMap             subRegion 
#>    <chr>                    <chr>     
#>  1 Arctic_Ocean_Islands     ArcticIsl 
#>  2 Northwest_Territories    NWTerr    
#>  3 Siberia_North_Coast      SiberiaN  
#>  4 Siberia_West_Coast       SiberiaW  
#>  5 Kara_Sea_Coast           KaraSea   
#>  6 Lena                     LenaR     
#>  7 Pacific_and_Arctic_Coast PacArctic 
#>  8 Scandinavia_North_Coast  ScndnvN   
#>  9 Russia_Barents_Sea_Coast BarentsSea
#> 10 Mackenzie                Mackenzie 
#> # … with 225 more rows
#> 
#> $mapping_tethys_grid_basin_region_country
#> # A tibble: 67,420 × 11
#>    gridID   lon   lat  ilon  ilat basinID basinName        regionID regionName  
#>     <int> <dbl> <dbl> <int> <int>   <int> <chr>               <int> <chr>       
#>  1      1 -180. -16.2     1   148     185 South_Pacific_I…       29 Southeast A…
#>  2      2 -180.  65.2     1   311       4 Siberia_West_Co…       23 Russia      
#>  3      3 -180.  65.8     1   312       4 Siberia_West_Co…       23 Russia      
#>  4      4 -180.  66.2     1   313       4 Siberia_West_Co…       23 Russia      
#>  5      5 -180.  66.8     1   314       4 Siberia_West_Co…       23 Russia      
#>  6      6 -180.  67.2     1   315       4 Siberia_West_Co…       23 Russia      
#>  7      7 -180.  67.8     1   316       4 Siberia_West_Co…       23 Russia      
#>  8      8 -180.  68.2     1   317       4 Siberia_West_Co…       23 Russia      
#>  9      9 -180.  68.8     1   318       4 Siberia_West_Co…       23 Russia      
#> 10     10 -180.  70.8     1   322       4 Siberia_West_Co…       23 Russia      
#> # … with 67,410 more rows, and 2 more variables: countryID <dbl>,
#> #   countryName <chr>
…
